<?xml version="1.0" encoding="UTF-8"?>
<session version="1.0">
<refactoring comment="Delete resource &apos;DiscoveryServer&apos;" deleteContents="false" description="Delete resource &apos;DiscoveryServer&apos;" element1="/DiscoveryServer" flags="7" id="org.eclipse.ltk.core.refactoring.delete.resources" resources="1" stamp="1713251126663"/>
</session>